{
    "Alt-/": "lua:comment.comment",
    "Alt-Z": "command:setlocal wordwrap off,command:setlocal softwrap off",
    "Alt-z": "command:setlocal wordwrap on,command:setlocal softwrap on",
    "CtrlUnderscore": "lua:comment.comment",
    "OldBackspace": "DeleteWordLeft"
}
