{
    "/etc/*": {
        "filetype": "conf"
    },
    "/home/*/.config/*": {
        "filetype": "conf"
    },
    "autoclose": false,
    "autosu": true,
    "colorscheme": "geany",
    "hlsearch": true,
    "mkparents": true,
    "ruler": false
}
